[
    {
      "name": "Online using card"
    },
    {
      "name": "Online using Samsung Pay"
    },
    {
      "name": "Online using Apple Pay"
    },
    {
      "name": "Online using Android Pay"
    }
  ]