{
  "hall": {
    "name": "Hall 1",
    "cinema": {
      "address": "Kulparkovskaya St., 226A Mall Victoria Gardens",
      "name": "Multiplex",
      "city": {
        "name": "Lviv",
        "country": {
          "name": "Ukraine"
        }
      }
    }
  },
  "place": [
    {
      "rowNumber": 1,
      "seatNumber": 10,
      "placeType": {
        "name": "VIP"
      }
    },
    {
      "rowNumber": 6,
      "seatNumber": 33,
      "placeType": {
        "name": "default"
      }
    }
  ],
  "user": {
    "email": "test@test.com"
  }
}